Causal Inference Workshop
…
Simulated Data

Heiss simulated data from 1,752 households to show that mosquito nets cause a reduction in malaria risk of 10 points.

# A tibble: 1,752 × 10
      id net   net_num malaria_risk income health household eligible temperature
   <dbl> <lgl>   <dbl>        <dbl>  <dbl>  <dbl>     <dbl> <lgl>          <dbl>
 1     1 TRUE        1           33    781     56         2 FALSE           21.1
 2     2 FALSE       0           42    974     57         4 FALSE           26.5
 3     3 FALSE       0           80    502     15         3 FALSE           25.6
 4     4 TRUE        1           34    671     20         5 TRUE            21.3
 5     5 FALSE       0           44    728     17         5 FALSE           19.2
 6     6 FALSE       0           25   1050     48         1 FALSE           25.3
 7     7 TRUE        1           19   1146     65         3 FALSE           27.4
 8     8 FALSE       0           35   1093     75         5 FALSE           29.8
 9     9 FALSE       0           32   1037     60         3 FALSE           27.6
10    10 FALSE       0           40    828     36         3 FALSE           21.3
# ℹ 1,742 more rows
# ℹ 1 more variable: resistance <dbl>
…
